
{
  "name" : "pkbhw",
  "tags" : [
    "Brown",
    "sand",
    "wet",
    "grit"
  ],
  "previews" : {
    "images" : [
      {
        "resolution" : "360x360",
        "uri"        : "pkbhw_Thumb.png",
        "tags"       : [
          "thumb"
        ]
      },
      {
        "resolution" : "720x720",
        "uri"        : "pkbhw_Thumb_Retina.png",
        "tags"       : [
          "thumb",
          "retina"
        ]
      },
      {
        "resolution" : "1450x816",
        "uri"        : "pkbhw_Preview.jpg",
        "tags"       : [
          "preview"
        ]
      },
      {
        "resolution" : "2900x1632",
        "uri"        : "pkbhw_Preview_Retina.jpg",
        "tags"       : [
          "preview",
          "retina"
        ]
      },
      {
        "resolution" : "1450x816",
        "uri"        : "pkbhw_PreviewClay.jpg",
        "tags"       : [
          "preview",
          "clay"
        ]
      },
      {
        "resolution" : "2900x1632",
        "uri"        : "pkbhw_PreviewClay_Retina.jpg",
        "tags"       : [
          "preview",
          "clay",
          "retina"
        ]
      },
      {
        "resolution" : "360x360",
        "uri"        : "pkbhw_ThumbClay.png",
        "tags"       : [
          "thumb",
          "clay"
        ]
      },
      {
        "resolution" : "720x720",
        "uri"        : "pkbhw_ThumbClay_Retina.png",
        "tags"       : [
          "thumb",
          "clay",
          "retina"
        ]
      },
      {
        "resolution" : "1450x816",
        "uri"        : "pkbhw_Tiled.jpg",
        "tags"       : [
          "preview",
          "tiled"
        ]
      },
      {
        "resolution" : "2900x1632",
        "uri"        : "pkbhw_Tiled_Retina.jpg",
        "tags"       : [
          "preview",
          "tiled",
          "retina"
        ]
      },
      {
        "resolution" : "1450x816",
        "uri"        : "pkbhw_Cropped.jpg",
        "tags"       : [
          "preview",
          "cropped"
        ]
      },
      {
        "resolution" : "2900x1632",
        "uri"        : "pkbhw_Cropped_Retina.jpg",
        "tags"       : [
          "preview",
          "cropped",
          "retina"
        ]
      },
      {
        "resolution" : "2048x2048",
        "uri"        : "pkbhw_Bake.jpg",
        "tags"       : [
          "bake"
        ]
      }
    ],
    "relativeSize" : "1x1"
  },
  "environment" : {
    "biome" : "mediterranean-forest",
    "region" : "Middle East"
  },
  "meta"        : [
    {
      "value" : "1x1 m",
      "name"  : "Scan Area",
      "key"   : "scanArea"
    },
    {
      "value" : "0.049 m",
      "name"  : "Height",
      "key"   : "height"
    },
    {
      "value" : true,
      "name"  : "Tileable",
      "key"   : "tileable"
    },
    {
      "value" : "4096 px/m",
      "name"  : "Texel Density",
      "key"   : "texelDensity"
    },
    {
      "value" : "X-Rite ColorChecker Classic",
      "name"  : "Calibration",
      "key"   : "calibration"
    },
    {
      "value" : "MKI",
      "name"  : "Scanner",
      "key"   : "scanner"
    }
  ],
  "averageColor" : "#917F60",
  "components"   : [
    {
      "minIntensity" : 77,
      "name"         : "Albedo",
      "colorSpace"   : "sRGB",
      "maxIntensity" : 125,
      "type"         : "albedo",
      "uris"         : [
        {
          "physicalSize" : "1x1",
          "resolutions"  : [
            {
              "resolution" : "4096x4096",
              "formats"    : [
                {
                  "mimeType" : "image/x-exr",
                  "bitDepth" : 16,
                  "uri"      : "pkbhw_4K_Albedo.exr"
                },
                {
                  "mimeType" : "image/jpeg",
                  "bitDepth" : 8,
                  "uri"      : "pkbhw_4K_Albedo.jpg"
                }
              ]
            },
            {
              "resolution" : "2048x2048",
              "formats"    : [
                {
                  "mimeType" : "image/x-exr",
                  "bitDepth" : 16,
                  "uri"      : "pkbhw_2K_Albedo.exr"
                },
                {
                  "mimeType" : "image/jpeg",
                  "bitDepth" : 8,
                  "uri"      : "pkbhw_2K_Albedo.jpg"
                }
              ]
            },
            {
              "resolution" : "1024x1024",
              "formats"    : [
                {
                  "mimeType" : "image/x-exr",
                  "bitDepth" : 16,
                  "uri"      : "pkbhw_1K_Albedo.exr"
                },
                {
                  "mimeType" : "image/jpeg",
                  "bitDepth" : 8,
                  "uri"      : "pkbhw_1K_Albedo.jpg"
                }
              ]
            },
            {
              "resolution" : "512x512",
              "formats"    : [
                {
                  "mimeType" : "image/x-exr",
                  "bitDepth" : 16,
                  "uri"      : "pkbhw_512_Albedo.exr"
                },
                {
                  "mimeType" : "image/jpeg",
                  "bitDepth" : 8,
                  "uri"      : "pkbhw_512_Albedo.jpg"
                }
              ]
            },
            {
              "resolution" : "256x256",
              "formats"    : [
                {
                  "mimeType" : "image/x-exr",
                  "bitDepth" : 16,
                  "uri"      : "pkbhw_256_Albedo.exr"
                },
                {
                  "mimeType" : "image/jpeg",
                  "bitDepth" : 8,
                  "uri"      : "pkbhw_256_Albedo.jpg"
                }
              ]
            }
          ]
        }
      ],
      "averageColor" : "#77603A"
    },
    {
      "minIntensity" : 245,
      "name"         : "AO",
      "colorSpace"   : "sRGB",
      "maxIntensity" : 255,
      "type"         : "ao",
      "uris"         : [
        {
          "physicalSize" : "1x1",
          "resolutions"  : [
            {
              "resolution" : "4096x4096",
              "formats"    : [
                {
                  "mimeType" : "image/x-exr",
                  "bitDepth" : 16,
                  "uri"      : "pkbhw_4K_AO.exr"
                },
                {
                  "mimeType" : "image/jpeg",
                  "bitDepth" : 8,
                  "uri"      : "pkbhw_4K_AO.jpg"
                }
              ]
            },
            {
              "resolution" : "2048x2048",
              "formats"    : [
                {
                  "mimeType" : "image/x-exr",
                  "bitDepth" : 16,
                  "uri"      : "pkbhw_2K_AO.exr"
                },
                {
                  "mimeType" : "image/jpeg",
                  "bitDepth" : 8,
                  "uri"      : "pkbhw_2K_AO.jpg"
                }
              ]
            },
            {
              "resolution" : "1024x1024",
              "formats"    : [
                {
                  "mimeType" : "image/x-exr",
                  "bitDepth" : 16,
                  "uri"      : "pkbhw_1K_AO.exr"
                },
                {
                  "mimeType" : "image/jpeg",
                  "bitDepth" : 8,
                  "uri"      : "pkbhw_1K_AO.jpg"
                }
              ]
            },
            {
              "resolution" : "512x512",
              "formats"    : [
                {
                  "mimeType" : "image/x-exr",
                  "bitDepth" : 16,
                  "uri"      : "pkbhw_512_AO.exr"
                },
                {
                  "mimeType" : "image/jpeg",
                  "bitDepth" : 8,
                  "uri"      : "pkbhw_512_AO.jpg"
                }
              ]
            },
            {
              "resolution" : "256x256",
              "formats"    : [
                {
                  "mimeType" : "image/x-exr",
                  "bitDepth" : 16,
                  "uri"      : "pkbhw_256_AO.exr"
                },
                {
                  "mimeType" : "image/jpeg",
                  "bitDepth" : 8,
                  "uri"      : "pkbhw_256_AO.jpg"
                }
              ]
            }
          ]
        }
      ],
      "averageColor" : "#FDFDFD"
    },
    {
      "minIntensity" : 203,
      "name"         : "Cavity",
      "colorSpace"   : "sRGB",
      "maxIntensity" : 255,
      "type"         : "cavity",
      "uris"         : [
        {
          "physicalSize" : "1x1",
          "resolutions"  : [
            {
              "resolution" : "4096x4096",
              "formats"    : [
                {
                  "mimeType" : "image/x-exr",
                  "bitDepth" : 16,
                  "uri"      : "pkbhw_4K_Cavity.exr"
                },
                {
                  "mimeType" : "image/jpeg",
                  "bitDepth" : 8,
                  "uri"      : "pkbhw_4K_Cavity.jpg"
                }
              ]
            },
            {
              "resolution" : "2048x2048",
              "formats"    : [
                {
                  "mimeType" : "image/x-exr",
                  "bitDepth" : 16,
                  "uri"      : "pkbhw_2K_Cavity.exr"
                },
                {
                  "mimeType" : "image/jpeg",
                  "bitDepth" : 8,
                  "uri"      : "pkbhw_2K_Cavity.jpg"
                }
              ]
            },
            {
              "resolution" : "1024x1024",
              "formats"    : [
                {
                  "mimeType" : "image/x-exr",
                  "bitDepth" : 16,
                  "uri"      : "pkbhw_1K_Cavity.exr"
                },
                {
                  "mimeType" : "image/jpeg",
                  "bitDepth" : 8,
                  "uri"      : "pkbhw_1K_Cavity.jpg"
                }
              ]
            },
            {
              "resolution" : "512x512",
              "formats"    : [
                {
                  "mimeType" : "image/x-exr",
                  "bitDepth" : 16,
                  "uri"      : "pkbhw_512_Cavity.exr"
                },
                {
                  "mimeType" : "image/jpeg",
                  "bitDepth" : 8,
                  "uri"      : "pkbhw_512_Cavity.jpg"
                }
              ]
            },
            {
              "resolution" : "256x256",
              "formats"    : [
                {
                  "mimeType" : "image/x-exr",
                  "bitDepth" : 16,
                  "uri"      : "pkbhw_256_Cavity.exr"
                },
                {
                  "mimeType" : "image/jpeg",
                  "bitDepth" : 8,
                  "uri"      : "pkbhw_256_Cavity.jpg"
                }
              ]
            }
          ]
        }
      ],
      "averageColor" : "#EFEFEF"
    },
    {
      "minIntensity" : 95,
      "name"         : "Displacement",
      "colorSpace"   : "Linear",
      "maxIntensity" : 158,
      "type"         : "displacement",
      "uris"         : [
        {
          "physicalSize" : "1x1",
          "resolutions"  : [
            {
              "resolution" : "4096x4096",
              "formats"    : [
                {
                  "mimeType" : "image/x-exr",
                  "bitDepth" : 32,
                  "uri"      : "pkbhw_4K_Displacement.exr"
                },
                {
                  "mimeType" : "image/jpeg",
                  "bitDepth" : 8,
                  "uri"      : "pkbhw_4K_Displacement.jpg"
                }
              ]
            },
            {
              "resolution" : "2048x2048",
              "formats"    : [
                {
                  "mimeType" : "image/x-exr",
                  "bitDepth" : 32,
                  "uri"      : "pkbhw_2K_Displacement.exr"
                },
                {
                  "mimeType" : "image/jpeg",
                  "bitDepth" : 8,
                  "uri"      : "pkbhw_2K_Displacement.jpg"
                }
              ]
            },
            {
              "resolution" : "1024x1024",
              "formats"    : [
                {
                  "mimeType" : "image/x-exr",
                  "bitDepth" : 32,
                  "uri"      : "pkbhw_1K_Displacement.exr"
                },
                {
                  "mimeType" : "image/jpeg",
                  "bitDepth" : 8,
                  "uri"      : "pkbhw_1K_Displacement.jpg"
                }
              ]
            },
            {
              "resolution" : "512x512",
              "formats"    : [
                {
                  "mimeType" : "image/x-exr",
                  "bitDepth" : 32,
                  "uri"      : "pkbhw_512_Displacement.exr"
                },
                {
                  "mimeType" : "image/jpeg",
                  "bitDepth" : 8,
                  "uri"      : "pkbhw_512_Displacement.jpg"
                }
              ]
            },
            {
              "resolution" : "256x256",
              "formats"    : [
                {
                  "mimeType" : "image/x-exr",
                  "bitDepth" : 32,
                  "uri"      : "pkbhw_256_Displacement.exr"
                },
                {
                  "mimeType" : "image/jpeg",
                  "bitDepth" : 8,
                  "uri"      : "pkbhw_256_Displacement.jpg"
                }
              ]
            }
          ]
        }
      ],
      "averageColor" : "#7C7C7C"
    },
    {
      "minIntensity" : 105,
      "name"         : "Bump",
      "colorSpace"   : "Linear",
      "maxIntensity" : 152,
      "type"         : "bump",
      "uris"         : [
        {
          "physicalSize" : "1x1",
          "resolutions"  : [
            {
              "resolution" : "4096x4096",
              "formats"    : [
                {
                  "mimeType" : "image/x-exr",
                  "bitDepth" : 16,
                  "uri"      : "pkbhw_4K_Bump.exr"
                },
                {
                  "mimeType" : "image/jpeg",
                  "bitDepth" : 8,
                  "uri"      : "pkbhw_4K_Bump.jpg"
                }
              ]
            },
            {
              "resolution" : "2048x2048",
              "formats"    : [
                {
                  "mimeType" : "image/x-exr",
                  "bitDepth" : 16,
                  "uri"      : "pkbhw_2K_Bump.exr"
                },
                {
                  "mimeType" : "image/jpeg",
                  "bitDepth" : 8,
                  "uri"      : "pkbhw_2K_Bump.jpg"
                }
              ]
            },
            {
              "resolution" : "1024x1024",
              "formats"    : [
                {
                  "mimeType" : "image/x-exr",
                  "bitDepth" : 16,
                  "uri"      : "pkbhw_1K_Bump.exr"
                },
                {
                  "mimeType" : "image/jpeg",
                  "bitDepth" : 8,
                  "uri"      : "pkbhw_1K_Bump.jpg"
                }
              ]
            },
            {
              "resolution" : "512x512",
              "formats"    : [
                {
                  "mimeType" : "image/x-exr",
                  "bitDepth" : 16,
                  "uri"      : "pkbhw_512_Bump.exr"
                },
                {
                  "mimeType" : "image/jpeg",
                  "bitDepth" : 8,
                  "uri"      : "pkbhw_512_Bump.jpg"
                }
              ]
            },
            {
              "resolution" : "256x256",
              "formats"    : [
                {
                  "mimeType" : "image/x-exr",
                  "bitDepth" : 16,
                  "uri"      : "pkbhw_256_Bump.exr"
                },
                {
                  "mimeType" : "image/jpeg",
                  "bitDepth" : 8,
                  "uri"      : "pkbhw_256_Bump.jpg"
                }
              ]
            }
          ]
        }
      ],
      "averageColor" : "#808080"
    },
    {
      "minIntensity" : 35,
      "name"         : "Gloss",
      "colorSpace"   : "Linear",
      "maxIntensity" : 64,
      "type"         : "gloss",
      "uris"         : [
        {
          "physicalSize" : "1x1",
          "resolutions"  : [
            {
              "resolution" : "4096x4096",
              "formats"    : [
                {
                  "mimeType" : "image/x-exr",
                  "bitDepth" : 16,
                  "uri"      : "pkbhw_4K_Gloss.exr"
                },
                {
                  "mimeType" : "image/jpeg",
                  "bitDepth" : 8,
                  "uri"      : "pkbhw_4K_Gloss.jpg"
                }
              ]
            },
            {
              "resolution" : "2048x2048",
              "formats"    : [
                {
                  "mimeType" : "image/x-exr",
                  "bitDepth" : 16,
                  "uri"      : "pkbhw_2K_Gloss.exr"
                },
                {
                  "mimeType" : "image/jpeg",
                  "bitDepth" : 8,
                  "uri"      : "pkbhw_2K_Gloss.jpg"
                }
              ]
            },
            {
              "resolution" : "1024x1024",
              "formats"    : [
                {
                  "mimeType" : "image/x-exr",
                  "bitDepth" : 16,
                  "uri"      : "pkbhw_1K_Gloss.exr"
                },
                {
                  "mimeType" : "image/jpeg",
                  "bitDepth" : 8,
                  "uri"      : "pkbhw_1K_Gloss.jpg"
                }
              ]
            },
            {
              "resolution" : "512x512",
              "formats"    : [
                {
                  "mimeType" : "image/x-exr",
                  "bitDepth" : 16,
                  "uri"      : "pkbhw_512_Gloss.exr"
                },
                {
                  "mimeType" : "image/jpeg",
                  "bitDepth" : 8,
                  "uri"      : "pkbhw_512_Gloss.jpg"
                }
              ]
            },
            {
              "resolution" : "256x256",
              "formats"    : [
                {
                  "mimeType" : "image/x-exr",
                  "bitDepth" : 16,
                  "uri"      : "pkbhw_256_Gloss.exr"
                },
                {
                  "mimeType" : "image/jpeg",
                  "bitDepth" : 8,
                  "uri"      : "pkbhw_256_Gloss.jpg"
                }
              ]
            }
          ]
        }
      ],
      "averageColor" : "#313131"
    },
    {
      "minIntensity" : 113,
      "name"         : "Normal",
      "colorSpace"   : "Linear",
      "maxIntensity" : 167,
      "type"         : "normal",
      "uris"         : [
        {
          "physicalSize" : "1x1",
          "resolutions"  : [
            {
              "resolution" : "4096x4096",
              "formats"    : [
                {
                  "mimeType" : "image/x-exr",
                  "bitDepth" : 16,
                  "uri"      : "pkbhw_4K_Normal.exr"
                },
                {
                  "mimeType" : "image/jpeg",
                  "bitDepth" : 8,
                  "uri"      : "pkbhw_4K_Normal.jpg"
                }
              ]
            },
            {
              "resolution" : "2048x2048",
              "formats"    : [
                {
                  "mimeType" : "image/x-exr",
                  "bitDepth" : 16,
                  "uri"      : "pkbhw_2K_Normal.exr"
                },
                {
                  "mimeType" : "image/jpeg",
                  "bitDepth" : 8,
                  "uri"      : "pkbhw_2K_Normal.jpg"
                }
              ]
            },
            {
              "resolution" : "1024x1024",
              "formats"    : [
                {
                  "mimeType" : "image/x-exr",
                  "bitDepth" : 16,
                  "uri"      : "pkbhw_1K_Normal.exr"
                },
                {
                  "mimeType" : "image/jpeg",
                  "bitDepth" : 8,
                  "uri"      : "pkbhw_1K_Normal.jpg"
                }
              ]
            },
            {
              "resolution" : "512x512",
              "formats"    : [
                {
                  "mimeType" : "image/x-exr",
                  "bitDepth" : 16,
                  "uri"      : "pkbhw_512_Normal.exr"
                },
                {
                  "mimeType" : "image/jpeg",
                  "bitDepth" : 8,
                  "uri"      : "pkbhw_512_Normal.jpg"
                }
              ]
            },
            {
              "resolution" : "256x256",
              "formats"    : [
                {
                  "mimeType" : "image/x-exr",
                  "bitDepth" : 16,
                  "uri"      : "pkbhw_256_Normal.exr"
                },
                {
                  "mimeType" : "image/jpeg",
                  "bitDepth" : 8,
                  "uri"      : "pkbhw_256_Normal.jpg"
                }
              ]
            }
          ]
        }
      ],
      "averageColor" : "#7F7FF8"
    },
    {
      "minIntensity" : 192,
      "name"         : "Roughness",
      "colorSpace"   : "Linear",
      "maxIntensity" : 215,
      "type"         : "roughness",
      "uris"         : [
        {
          "physicalSize" : "1x1",
          "resolutions"  : [
            {
              "resolution" : "4096x4096",
              "formats"    : [
                {
                  "mimeType" : "image/x-exr",
                  "bitDepth" : 16,
                  "uri"      : "pkbhw_4K_Roughness.exr"
                },
                {
                  "mimeType" : "image/jpeg",
                  "bitDepth" : 8,
                  "uri"      : "pkbhw_4K_Roughness.jpg"
                }
              ]
            },
            {
              "resolution" : "2048x2048",
              "formats"    : [
                {
                  "mimeType" : "image/x-exr",
                  "bitDepth" : 16,
                  "uri"      : "pkbhw_2K_Roughness.exr"
                },
                {
                  "mimeType" : "image/jpeg",
                  "bitDepth" : 8,
                  "uri"      : "pkbhw_2K_Roughness.jpg"
                }
              ]
            },
            {
              "resolution" : "1024x1024",
              "formats"    : [
                {
                  "mimeType" : "image/x-exr",
                  "bitDepth" : 16,
                  "uri"      : "pkbhw_1K_Roughness.exr"
                },
                {
                  "mimeType" : "image/jpeg",
                  "bitDepth" : 8,
                  "uri"      : "pkbhw_1K_Roughness.jpg"
                }
              ]
            },
            {
              "resolution" : "512x512",
              "formats"    : [
                {
                  "mimeType" : "image/x-exr",
                  "bitDepth" : 16,
                  "uri"      : "pkbhw_512_Roughness.exr"
                },
                {
                  "mimeType" : "image/jpeg",
                  "bitDepth" : 8,
                  "uri"      : "pkbhw_512_Roughness.jpg"
                }
              ]
            },
            {
              "resolution" : "256x256",
              "formats"    : [
                {
                  "mimeType" : "image/x-exr",
                  "bitDepth" : 16,
                  "uri"      : "pkbhw_256_Roughness.exr"
                },
                {
                  "mimeType" : "image/jpeg",
                  "bitDepth" : 8,
                  "uri"      : "pkbhw_256_Roughness.jpg"
                }
              ]
            }
          ]
        }
      ],
      "averageColor" : "#CCCCCC"
    },
    {
      "minIntensity" : 33,
      "name"         : "Specular",
      "colorSpace"   : "sRGB",
      "maxIntensity" : 59,
      "type"         : "specular",
      "uris"         : [
        {
          "physicalSize" : "1x1",
          "resolutions"  : [
            {
              "resolution" : "4096x4096",
              "formats"    : [
                {
                  "mimeType" : "image/x-exr",
                  "bitDepth" : 16,
                  "uri"      : "pkbhw_4K_Specular.exr"
                },
                {
                  "mimeType" : "image/jpeg",
                  "bitDepth" : 8,
                  "uri"      : "pkbhw_4K_Specular.jpg"
                }
              ]
            },
            {
              "resolution" : "2048x2048",
              "formats"    : [
                {
                  "mimeType" : "image/x-exr",
                  "bitDepth" : 16,
                  "uri"      : "pkbhw_2K_Specular.exr"
                },
                {
                  "mimeType" : "image/jpeg",
                  "bitDepth" : 8,
                  "uri"      : "pkbhw_2K_Specular.jpg"
                }
              ]
            },
            {
              "resolution" : "1024x1024",
              "formats"    : [
                {
                  "mimeType" : "image/x-exr",
                  "bitDepth" : 16,
                  "uri"      : "pkbhw_1K_Specular.exr"
                },
                {
                  "mimeType" : "image/jpeg",
                  "bitDepth" : 8,
                  "uri"      : "pkbhw_1K_Specular.jpg"
                }
              ]
            },
            {
              "resolution" : "512x512",
              "formats"    : [
                {
                  "mimeType" : "image/x-exr",
                  "bitDepth" : 16,
                  "uri"      : "pkbhw_512_Specular.exr"
                },
                {
                  "mimeType" : "image/jpeg",
                  "bitDepth" : 8,
                  "uri"      : "pkbhw_512_Specular.jpg"
                }
              ]
            },
            {
              "resolution" : "256x256",
              "formats"    : [
                {
                  "mimeType" : "image/x-exr",
                  "bitDepth" : 16,
                  "uri"      : "pkbhw_256_Specular.exr"
                },
                {
                  "mimeType" : "image/jpeg",
                  "bitDepth" : 8,
                  "uri"      : "pkbhw_256_Specular.jpg"
                }
              ]
            }
          ]
        }
      ],
      "averageColor" : "#313131"
    }
  ],
  "id"           : "pkbhw0",
  "properties"   : [
    {
      "key" : "orientation",
      "value" : "floor"
    }
  ],
  "categories"   : [
    "surface",
    "soil",
    "dirt"
  ],
  "points"       : 1,
  "references"   : [
  ]
}
